…
This chunck of code creates a table following the guidelines for problem 2.

``` r
example2_df = tibble(
  x = rnorm(500),
  y = rnorm(500),
  sum_greater_one = x + y > 1,
  vec_num = as.numeric(sum_greater_one),
  vec_factor = as.factor(sum_greater_one)
)

example2_df
```

    ## # A tibble: 500 x 5
    ##         x      y sum_greater_one vec_num vec_factor
    ##     <dbl>  <dbl> <lgl>             <dbl> <fct>     
    ##  1 -0.383 -0.139 FALSE                 0 FALSE     
    ##  2 -0.823 -0.185 FALSE                 0 FALSE     
    ##  3  0.376  0.905 TRUE                  1 TRUE      
    ##  4 -1.21   0.700 FALSE                 0 FALSE     
    ##  5  2.12   0.234 TRUE                  1 TRUE      
    ##  6 -0.122  1.41  TRUE                  1 TRUE      
    ##  7  1.71   0.116 TRUE                  1 TRUE      
    ##  8 -1.25  -1.77  FALSE                 0 FALSE     
    ##  9  0.326 -0.853 FALSE                 0 FALSE     
    ## 10 -0.806 -0.256 FALSE                 0 FALSE     
    ## # … with 490 more rows
…
